%YAML 1.1
%TAG !u! tag:unity3d.com,2011:
--- !u!114 &11400000
MonoBehaviour:
  m_ObjectHideFlags: 0
  m_PrefabParentObject: {fileID: 0}
  m_PrefabInternal: {fileID: 0}
  m_GameObject: {fileID: 0}
  m_Enabled: 1
  m_EditorHideFlags: 0
  m_Script: {fileID: 11500000, guid: 64e723ba20a6cdd43b05bac431e142d8, type: 3}
  m_Name: MainQuest
  m_EditorClassIdentifier: 
  Name: In Quest For
  Description: "You're in quest for more to find the core\r\nYour journey still ain't
    over\r\nYour quest is your purpose, go on"
  DescriptionShort: Your quest is your purpose
  MainObjective: {fileID: 11400000, guid: d0570bac8320dfc4f910c457f326d72c, type: 2}
  SubObjectives:
  - {fileID: 11400000, guid: 5104b6fa59ce0ed4b9ea3a31c92358fd, type: 2}
